Visualise data
…
Create a spore_raw object that has spore and weather data.

spore_raw <- spore_data %>%
  left_join(coord_deg, by = c("trap_coord" = "dir")) %>%
  rename(trap_degrees = degrees)
spore_raw

## # A tibble: 1,152 × 8
##    field trap_coord distance_m time_min sub_sample   sub n_spore trap_degrees
##    <fct> <chr>           <dbl>    <dbl>      <dbl> <dbl>   <dbl>        <dbl>
##  1 1     N                 100       90          1     1       2            0
##  2 1     N                 100       90          1     2       0            0
##  3 1     N                 100       90          2     1       0            0
##  4 1     N                 100       90          2     2       0            0
##  5 1     N                 200       90          1     1       0            0
##  6 1     N                 200       90          1     2       0            0
##  7 1     N                 200       90          2     1       0            0
##  8 1     N                 200       90          2     2       2            0
##  9 1     N                 300       90          1     1       1            0
## 10 1     N                 300       90          1     2       0            0
## # … with 1,142 more rows
…
spore_dat

## # A tibble: 576 × 8
##    id     field trap_coord distance_m trap_degrees time_min sub_sample spore_cm2
##    <chr>  <fct> <chr>           <dbl>        <dbl>    <dbl>      <dbl>     <dbl>
##  1 1_E_1… 1     E                 100           90      180          1     1.25 
##  2 1_E_1… 1     E                 100           90      180          2     0.833
##  3 1_E_1… 1     E                 100           90      270          1     2.5  
##  4 1_E_1… 1     E                 100           90      270          2     0    
##  5 1_E_1… 1     E                 100           90       90          1     1.25 
##  6 1_E_1… 1     E                 100           90       90          2     0    
##  7 1_E_2… 1     E                 200           90      180          1     0    
##  8 1_E_2… 1     E                 200           90      180          2     0    
##  9 1_E_2… 1     E                 200           90      270          1     1.67 
## 10 1_E_2… 1     E                 200           90      270          2     0.417
## # … with 566 more rows
…
spore_dat %>%
  left_join(meteo_sum, by = "field") %>%
  mutate(degree_dif = abs(trap_degrees - wind_degrees)) %>%
  mutate(downwind = case_when(
    between(degree_dif, 157.5, 202.5) ~ "downwind",
    between(degree_dif, 22.5, 157.5) |
      between(degree_dif, 202.5, 337.5)  ~ "lateral",
    TRUE ~ "upwind"
  )) %>%
  mutate_at(vars(field, downwind), as.factor) -> mod_dat

mod_dat

## # A tibble: 576 × 18
##    id     field trap_coord distance_m trap_degrees time_min sub_sample spore_cm2
##    <chr>  <fct> <chr>           <dbl>        <dbl>    <dbl>      <dbl>     <dbl>
##  1 1_E_1… 1     E                 100           90      180          1     1.25 
##  2 1_E_1… 1     E                 100           90      180          2     0.833
##  3 1_E_1… 1     E                 100           90      270          1     2.5  
##  4 1_E_1… 1     E                 100           90      270          2     0    
##  5 1_E_1… 1     E                 100           90       90          1     1.25 
##  6 1_E_1… 1     E                 100           90       90          2     0    
##  7 1_E_2… 1     E                 200           90      180          1     0    
##  8 1_E_2… 1     E                 200           90      180          2     0    
##  9 1_E_2… 1     E                 200           90      270          1     1.67 
## 10 1_E_2… 1     E                 200           90      270          2     0.417
## # … with 566 more rows, and 10 more variables: rel_hum <dbl>, temp <dbl>,
## #   wind_speed <dbl>, wind_dir <chr>, n <int>, freq <dbl>, wind_degrees <dbl>,
## #   smut_incidence <dbl>, degree_dif <dbl>, downwind <fct>
…
