Import data
…
mod_dat <- left_join(meteo_data,
                 spore_data,
                 by = c("field" = "field",
                        "time_slice" = "time_min")) %>%
  mutate(degree_dif = abs(trap_degrees - wind_degrees)) %>%
  mutate(downwind = case_when(
    between(degree_dif, 157.5, 202.5) ~ "downwind",
    between(degree_dif, 22.5, 157.5) |
      between(degree_dif, 202.5, 337.5)  ~ "lateral",
    TRUE ~ "upwind"
  ))

mod_dat

## # A tibble: 288 × 13
##    time_slice field    rh  temp wind_speed wind_degrees trap_coord distance_m
##         <dbl> <fct> <dbl> <dbl>      <dbl>        <dbl> <chr>           <dbl>
##  1         90 1        65  18.9       5.36         76.2 N                 100
##  2         90 1        65  18.9       5.36         76.2 N                 200
##  3         90 1        65  18.9       5.36         76.2 N                 300
##  4         90 1        65  18.9       5.36         76.2 N                 400
##  5         90 1        65  18.9       5.36         76.2 E                 100
##  6         90 1        65  18.9       5.36         76.2 E                 200
##  7         90 1        65  18.9       5.36         76.2 E                 300
##  8         90 1        65  18.9       5.36         76.2 E                 400
##  9         90 1        65  18.9       5.36         76.2 W                 100
## 10         90 1        65  18.9       5.36         76.2 W                 200
## # … with 278 more rows, and 5 more variables: trap_id <fct>, spore_cm2 <dbl>,
## #   trap_degrees <dbl>, degree_dif <dbl>, downwind <chr>
…
